Mon Mar 30 14:45:35 CDT 2020
MATLAB is selecting SOFTWARE OPENGL rendering.

                            < M A T L A B (R) >
                  Copyright 1984-2019 The MathWorks, Inc.
              R2019a Update 2 (9.6.0.1114505) 64-bit (glnxa64)
                                May 1, 2019

 
To get started, type doc.
For product information, visit www.mathworks.com.
 
>> >> >> >> >> >> >> >> >> >> >> >> >> >> >> >> >> >> >> >> >> >> >> >> >> >> >> >> >> >> >> >> >> >> >> >> >> >> >> >> >> >> >> >> >> >> >> >> >> >> >> >> >> >> >> >> >> >> >> >> Starting parallel pool (parpool) using the 'local' profile ...
Connected to the parallel pool (number of workers: 6).
>> >> >> Subject index: 1
Subject index: 2
Subject index: 3
Subject index: 4
Subject index: 5
Subject index: 6

Minimum found that satisfies the constraints.

Optimization completed because the objective function is non-decreasing in 
feasible directions, to within the value of the optimality tolerance,
and constraints are satisfied to within the value of the constraint tolerance.


Minimum found that satisfies the constraints.

Optimization completed because the objective function is non-decreasing in 
feasible directions, to within the value of the optimality tolerance,
and constraints are satisfied to within the value of the constraint tolerance.


Minimum found that satisfies the constraints.

Optimization completed because the objective function is non-decreasing in 
feasible directions, to within the value of the optimality tolerance,
and constraints are satisfied to within the value of the constraint tolerance.


Minimum found that satisfies the constraints.

Optimization completed because the objective function is non-decreasing in 
feasible directions, to within the value of the optimality tolerance,
and constraints are satisfied to within the value of the constraint tolerance.


Minimum found that satisfies the constraints.

Optimization completed because the objective function is non-decreasing in 
feasible directions, to within the value of the optimality tolerance,
and constraints are satisfied to within the value of the constraint tolerance.


Minimum found that satisfies the constraints.

Optimization completed because the objective function is non-decreasing in 
feasible directions, to within the value of the optimality tolerance,
and constraints are satisfied to within the value of the constraint tolerance.

Subject 1 Binary SCR with temperature and heart rate
Subject 4 Binary SCR with temperature and heart rate
Subject 6 Binary SCR with temperature and heart rate
Subject 2 Binary SCR with temperature and heart rate
Subject 3 Binary SCR with temperature and heart rate
Subject 5 Binary SCR with temperature and heart rate
Converged at m = 449

Converged at m = 542

Converged at m = 458

Converged at m = 607

Converged at m = 722

Converged at m = 1027

Subject 4 Binary SCR with SpO2 and heart rate
Subject 6 Binary SCR with SpO2 and heart rate
Subject 1 Binary SCR with SpO2 and heart rate
Subject 3 Binary SCR with SpO2 and heart rate
Converged at m = 115

Subject 2 Binary SCR with SpO2 and heart rate
Converged at m = 478

Subject 1 Binary SCR with SpO2 and temperature
Converged at m = 457

Subject 5 Binary SCR with SpO2 and heart rate
Converged at m = 116

Converged at m = 304

Subject 6 Binary SCR with SpO2 and temperature
Subject 3 Binary SCR with SpO2 and temperature
Converged at m = 775

Subject 1 Binary SCR with heart rate
Subject 2 Binary SCR with SpO2 and temperature
Converged at m = 370

Converged at m = 248

Subject 4 Binary SCR with SpO2 and temperature
Converged at m = 219

Subject 5 Binary SCR with SpO2 and temperature

pathnow = 

  struct with fields:

        path: '/home/nndiwadk/Project6'
           m: {10x1 cell}
       mlapp: {0x1 cell}
         mlx: {0x1 cell}
         mat: {'data_no_extern_stim.mat'}
         mex: {0x1 cell}
         mdl: {0x1 cell}
         slx: {0x1 cell}
         sfx: {0x1 cell}
           p: {0x1 cell}
     classes: {0x1 cell}
    packages: {0x1 cell}

Converged at m = 142

Subject 2 Binary SCR with heart rate
Subject 3 Binary SCR with heart rate
EM converged after 10  
 alpha is 3.584965, beta is -0.715203, sigesq is 0.000026, sigvsq is 0.000068 
Subject 1 Binary SCR with temperature
Subject 4 Binary SCR with heart rate
Converged at m = 320

Converged at m = 878


pathnow = 

  struct with fields:

        path: '/home/nndiwadk/Project6'
           m: {10x1 cell}
       mlapp: {0x1 cell}
         mlx: {0x1 cell}
         mat: {'data_no_extern_stim.mat'}
         mex: {0x1 cell}
         mdl: {0x1 cell}
         slx: {0x1 cell}
         sfx: {0x1 cell}
           p: {0x1 cell}
     classes: {0x1 cell}
    packages: {0x1 cell}


pathnow = 

  struct with fields:

        path: '/home/nndiwadk/Project6'
           m: {10x1 cell}
       mlapp: {0x1 cell}
         mlx: {0x1 cell}
         mat: {'data_no_extern_stim.mat'}
         mex: {0x1 cell}
         mdl: {0x1 cell}
         slx: {0x1 cell}
         sfx: {0x1 cell}
           p: {0x1 cell}
     classes: {0x1 cell}
    packages: {0x1 cell}


pathnow = 

  struct with fields:

        path: '/home/nndiwadk/Project6'
           m: {10x1 cell}
       mlapp: {0x1 cell}
         mlx: {0x1 cell}
         mat: {'data_no_extern_stim.mat'}
         mex: {0x1 cell}
         mdl: {0x1 cell}
         slx: {0x1 cell}
         sfx: {0x1 cell}
           p: {0x1 cell}
     classes: {0x1 cell}
    packages: {0x1 cell}

Subject 5 Binary SCR with heart rate
EM converged after 10  
 alpha is 3.626606, beta is -0.779916, sigesq is 0.000029, sigvsq is 0.000064 
Subject 1 Binary SCR with spo2
EM converged after 10  
 alpha is 2.612617, beta is -0.851686, sigesq is 0.000034, sigvsq is 0.000062 
Subject 2 Binary SCR with temperature
EM converged after 11  
 alpha is 2.976908, beta is -0.906274, sigesq is 0.000024, sigvsq is 0.000038 
Subject 3 Binary SCR with temperature

pathnow = 

  struct with fields:

        path: '/home/nndiwadk/Project6'
           m: {10x1 cell}
       mlapp: {0x1 cell}
         mlx: {0x1 cell}
         mat: {'data_no_extern_stim.mat'}
         mex: {0x1 cell}
         mdl: {0x1 cell}
         slx: {0x1 cell}
         sfx: {0x1 cell}
           p: {0x1 cell}
     classes: {0x1 cell}
    packages: {0x1 cell}

Subject 6 Binary SCR with heart rate
EM converged after 11  
 alpha is 3.220657, beta is -0.920328, sigesq is 0.000020, sigvsq is 0.000031 
Subject 4 Binary SCR with temperature

pathnow = 

  struct with fields:

        path: '/home/nndiwadk/Project6'
           m: {10x1 cell}
       mlapp: {0x1 cell}
         mlx: {0x1 cell}
         mat: {'data_no_extern_stim.mat'}
         mex: {0x1 cell}
         mdl: {0x1 cell}
         slx: {0x1 cell}
         sfx: {0x1 cell}
           p: {0x1 cell}
     classes: {0x1 cell}
    packages: {0x1 cell}


pathnow = 

  struct with fields:

        path: '/home/nndiwadk/Project6'
           m: {10x1 cell}
       mlapp: {0x1 cell}
         mlx: {0x1 cell}
         mat: {'data_no_extern_stim.mat'}
         mex: {0x1 cell}
         mdl: {0x1 cell}
         slx: {0x1 cell}
         sfx: {0x1 cell}
           p: {0x1 cell}
     classes: {0x1 cell}
    packages: {0x1 cell}


pathnow = 

  struct with fields:

        path: '/home/nndiwadk/Project6'
           m: {10x1 cell}
       mlapp: {0x1 cell}
         mlx: {0x1 cell}
         mat: {'data_no_extern_stim.mat'}
         mex: {0x1 cell}
         mdl: {0x1 cell}
         slx: {0x1 cell}
         sfx: {0x1 cell}
           p: {0x1 cell}
     classes: {0x1 cell}
    packages: {0x1 cell}

EM converged after 10  
 alpha is 4.138592, beta is -0.353404, sigesq is 0.000009, sigvsq is 0.000093 
Subject 5 Binary SCR with temperature
EM converged after 10  
 alpha is 4.870949, beta is -0.502967, sigesq is 0.000019, sigvsq is 0.000095 
Subject 2 Binary SCR with spo2
EM converged after 10  
 alpha is 3.238221, beta is -0.625310, sigesq is 0.000024, sigvsq is 0.000081 
Subject 3 Binary SCR with spo2

pathnow = 

  struct with fields:

        path: '/home/nndiwadk/Project6'
           m: {10x1 cell}
       mlapp: {0x1 cell}
         mlx: {0x1 cell}
         mat: {'data_no_extern_stim.mat'}
         mex: {0x1 cell}
         mdl: {0x1 cell}
         slx: {0x1 cell}
         sfx: {0x1 cell}
           p: {0x1 cell}
     classes: {0x1 cell}
    packages: {0x1 cell}


pathnow = 

  struct with fields:

        path: '/home/nndiwadk/Project6'
           m: {10x1 cell}
       mlapp: {0x1 cell}
         mlx: {0x1 cell}
         mat: {'data_no_extern_stim.mat'}
         mex: {0x1 cell}
         mdl: {0x1 cell}
         slx: {0x1 cell}
         sfx: {0x1 cell}
           p: {0x1 cell}
     classes: {0x1 cell}
    packages: {0x1 cell}

EM converged after 11  
 alpha is 3.105894, beta is -0.784193, sigesq is 0.000017, sigvsq is 0.000036 
Subject 4 Binary SCR with spo2
EM converged after 9  
 alpha is 4.906559, beta is -0.038670, sigesq is 0.000001, sigvsq is 0.000524 
Subject 5 Binary SCR with spo2

pathnow = 

  struct with fields:

        path: '/home/nndiwadk/Project6'
           m: {10x1 cell}
       mlapp: {0x1 cell}
         mlx: {0x1 cell}
         mat: {'data_no_extern_stim.mat'}
         mex: {0x1 cell}
         mdl: {0x1 cell}
         slx: {0x1 cell}
         sfx: {0x1 cell}
           p: {0x1 cell}
     classes: {0x1 cell}
    packages: {0x1 cell}

EM converged after 12  
 alpha is 1.708544, beta is -0.968974, sigesq is 0.000022, sigvsq is 0.000029 

pathnow = 

  struct with fields:

        path: '/home/nndiwadk/Project6'
           m: {10x1 cell}
       mlapp: {0x1 cell}
         mlx: {0x1 cell}
         mat: {'data_no_extern_stim.mat'}
         mex: {0x1 cell}
         mdl: {0x1 cell}
         slx: {0x1 cell}
         sfx: {0x1 cell}
           p: {0x1 cell}
     classes: {0x1 cell}
    packages: {0x1 cell}

EM converged after 10  
 alpha is 2.157956, beta is -0.695951, sigesq is 0.000032, sigvsq is 0.000085 

pathnow = 

  struct with fields:

        path: '/home/nndiwadk/Project6'
           m: {10x1 cell}
       mlapp: {0x1 cell}
         mlx: {0x1 cell}
         mat: {'data_no_extern_stim.mat'}
         mex: {0x1 cell}
         mdl: {0x1 cell}
         slx: {0x1 cell}
         sfx: {0x1 cell}
           p: {0x1 cell}
     classes: {0x1 cell}
    packages: {0x1 cell}

EM converged after 228  
 alpha is 1.937817, beta is -0.880422, sigesq is 0.000005, sigvsq is 0.000007 
Subject 6 Binary SCR with temperature

pathnow = 

  struct with fields:

        path: '/home/nndiwadk/Project6'
           m: {10x1 cell}
       mlapp: {0x1 cell}
         mlx: {0x1 cell}
         mat: {'data_no_extern_stim.mat'}
         mex: {0x1 cell}
         mdl: {0x1 cell}
         slx: {0x1 cell}
         sfx: {0x1 cell}
           p: {0x1 cell}
     classes: {0x1 cell}
    packages: {0x1 cell}

EM converged after 963  
 alpha is 2.513099, beta is -0.662479, sigesq is 0.000199, sigvsq is 0.000475 

pathnow = 

  struct with fields:

        path: '/home/nndiwadk/Project6'
           m: {10x1 cell}
       mlapp: {0x1 cell}
         mlx: {0x1 cell}
         mat: {'data_no_extern_stim.mat'}
         mex: {0x1 cell}
         mdl: {0x1 cell}
         slx: {0x1 cell}
         sfx: {0x1 cell}
           p: {0x1 cell}
     classes: {0x1 cell}
    packages: {0x1 cell}

EM converged after 1042  
 alpha is 1.918619, beta is -0.779536, sigesq is 0.000238, sigvsq is 0.000429 

pathnow = 

  struct with fields:

        path: '/home/nndiwadk/Project6'
           m: {10x1 cell}
       mlapp: {0x1 cell}
         mlx: {0x1 cell}
         mat: {'data_no_extern_stim.mat'}
         mex: {0x1 cell}
         mdl: {0x1 cell}
         slx: {0x1 cell}
         sfx: {0x1 cell}
           p: {0x1 cell}
     classes: {0x1 cell}
    packages: {0x1 cell}

Failed to converge subject: 1
failed to converge after 2000 steps; convergence criterion was 0.000100 
 alpha is 2.225848, beta is -1.694839, sigesq is 0.000153, sigvsq is 0.000059 

pathnow = 

  struct with fields:

        path: '/home/nndiwadk/Project6'
           m: {10x1 cell}
       mlapp: {0x1 cell}
         mlx: {0x1 cell}
         mat: {'data_no_extern_stim.mat'}
         mex: {0x1 cell}
         mdl: {0x1 cell}
         slx: {0x1 cell}
         sfx: {0x1 cell}
           p: {0x1 cell}
     classes: {0x1 cell}
    packages: {0x1 cell}

Failed to converge subject: 6
failed to converge after 2000 steps; convergence criterion was 0.000100 
 alpha is 3.751284, beta is -1.982609, sigesq is 0.000017, sigvsq is 0.000005 
Subject 6 Binary SCR with spo2

pathnow = 

  struct with fields:

        path: '/home/nndiwadk/Project6'
           m: {10x1 cell}
       mlapp: {0x1 cell}
         mlx: {0x1 cell}
         mat: {'data_no_extern_stim.mat'}
         mex: {0x1 cell}
         mdl: {0x1 cell}
         slx: {0x1 cell}
         sfx: {0x1 cell}
           p: {0x1 cell}
     classes: {0x1 cell}
    packages: {0x1 cell}

EM converged after 10  
 alpha is 1.396226, beta is -0.735880, sigesq is 0.000027, sigvsq is 0.000066 
>> Mon Mar 30 14:58:31 CDT 2020
