Sun Mar  8 20:03:06 CDT 2020
MATLAB is selecting SOFTWARE OPENGL rendering.

                            < M A T L A B (R) >
                  Copyright 1984-2019 The MathWorks, Inc.
              R2019a Update 2 (9.6.0.1114505) 64-bit (glnxa64)
                                May 1, 2019

 
To get started, type doc.
For product information, visit www.mathworks.com.
 
>> >> >> >> >> {Attempt to execute SCRIPT varargin as a function:
/share/apps/matlab-r2019a/toolbox/matlab/lang/varargin.m
} 
>> Sun Mar  8 20:03:16 CDT 2020
