Sun Mar  8 21:34:10 CDT 2020
MATLAB is selecting SOFTWARE OPENGL rendering.

                            < M A T L A B (R) >
                  Copyright 1984-2019 The MathWorks, Inc.
              R2019a Update 2 (9.6.0.1114505) 64-bit (glnxa64)
                                May 1, 2019

 
To get started, type doc.
For product information, visit www.mathworks.com.
 
>> >> >> >> >> >> >> >> >> >> >> >> >> >> >> >> >> >> >> >> >> >> >> >> >> >> >> >> >> >> >> >> >> >> >> >> >> >> >> >> >> >> >> >> >> >> >> >> >> >> Starting parallel pool (parpool) using the 'local' profile ...
Connected to the parallel pool (number of workers: 6).
>> >> >> Subject index: 3

Minimum found that satisfies the constraints.

Optimization completed because the objective function is non-decreasing in 
feasible directions, to within the value of the optimality tolerance,
and constraints are satisfied to within the value of the constraint tolerance.

Subject 3 Binary SCR with temperature and heart rate
Converged at m = 18

Subject 3 Binary SCR with SpO2 and heart rate
Converged at m = 18

Subject 3 Binary SCR with SpO2 and temperature
Converged at m = 28

Subject 3 Binary SCR with heart rate

pathnow = 

  struct with fields:

        path: '/home/nndiwadk/Project6'
           m: {9x1 cell}
       mlapp: {0x1 cell}
         mlx: {0x1 cell}
         mat: {'data_no_extern_stim.mat'}
         mex: {0x1 cell}
         mdl: {0x1 cell}
         slx: {0x1 cell}
         sfx: {0x1 cell}
           p: {0x1 cell}
     classes: {0x1 cell}
    packages: {0x1 cell}

EM converged after 10  
 alpha is 1.175759, beta is -0.438089, sigesq is 0.000012, sigvsq is 0.000084 
Subject 3 Binary SCR with temperature

pathnow = 

  struct with fields:

        path: '/home/nndiwadk/Project6'
           m: {9x1 cell}
       mlapp: {0x1 cell}
         mlx: {0x1 cell}
         mat: {'data_no_extern_stim.mat'}
         mex: {0x1 cell}
         mdl: {0x1 cell}
         slx: {0x1 cell}
         sfx: {0x1 cell}
           p: {0x1 cell}
     classes: {0x1 cell}
    packages: {0x1 cell}

EM converged after 11  
 alpha is 0.524230, beta is -0.435014, sigesq is 0.000006, sigvsq is 0.000041 
Subject 3 Binary SCR with spo2

pathnow = 

  struct with fields:

        path: '/home/nndiwadk/Project6'
           m: {9x1 cell}
       mlapp: {0x1 cell}
         mlx: {0x1 cell}
         mat: {'data_no_extern_stim.mat'}
         mex: {0x1 cell}
         mdl: {0x1 cell}
         slx: {0x1 cell}
         sfx: {0x1 cell}
           p: {0x1 cell}
     classes: {0x1 cell}
    packages: {0x1 cell}

failed to converge after 500 steps; convergence criterion was 0.000100 
 alpha is 1.256132, beta is -0.126846, sigesq is 0.000003, sigvsq is 0.000201 
>> Sun Mar  8 22:10:58 CDT 2020
